@Default 
	[A7:N10007]
		[A]	SEQ_NO	N(15)
		[B]	INVOICE_NO	C(16) * 
		[C]	INVOICE_DATE	D * 
		[D]	TAX_NO	C(25)
		[E]	TAX_DT	D
		[F]	CURRENCY_CD	C(3) * 
		[G]	AMOUNT_TURN_OVER	N(18,2) * 
		[H]	AMOUNT_PPN	N(18,2)
		[I]	AMOUNT_SEAL	N(18,2)
		[J]	AMOUNT	N(18,2)
		[K]	DESCRIPTION	C(50) * 
		[L]	DPP_AMOUNT	N(18,2)
		[M]	ACC_INF_ASSIGNMENT	C(18)
		[N]	COST_CENTER_CD	C(6)
		[O]	ERRMSG	C